…
```
# A tibble: 444 × 5
# Groups:   gene [444]
   gene     ABC.sources                        ABC.product.lab… ABC.count from  
   <fct>    <chr>                                         <dbl>     <int> <chr> 
 1 AAAS     chr12:53318068-53321694                           1         1 SLC11…
 2 ABT1     chr6:24719303-24722493                            1         1 HFE   
 3 ACOT13   chr6:24719303-24722493,chr6:25991…                3         2 HFE   
 4 ACTL6B   chr7:100166895-100168233,chr7:100…                2         2 TFR2  
 5 ACVR1B   chr12:53318068-53321694                           2         1 SLC11…
 6 ACVRL1   chr12:53318068-53321694                           2         1 SLC11…
 7 ADAM28   chr8:22417293-22420339                            2         1 SLC39…
 8 ADAMDEC1 chr8:22417293-22420339                            2         1 SLC39…
 9 ADGRG1   chr16:56639960-56645831,chr16:573…                3         7 CIAPI…
10 ADGRG3   chr16:56639960-56645831,chr16:573…                2         4 CIAPI…
# … with 434 more rows
```
…
enhancer.tissue = unique(eg_dist1[c("source", "tissues.uniq")])
enhancer.tissue$tissues.uniq = as.character(enhancer.tissue$tissues.uniq)
enhancer.tissue = enhancer.tissue %>%
    group_by(source) %>%
    mutate(tissues = Reduce(function(x, y) {
        paste(unlist(sort(unique(c(strsplit(x, ",")[[1]], strsplit(y, ",")[[1]])))),
            collapse = ",")
    }, tissues.uniq))
enhancer.tissue = unique(enhancer.tissue[c(1, 3)])

gname.tissue
```

```
# A tibble: 457 × 2
# Groups:   gene [457]
   gene         tissues        
   <fct>        <chr>          
 1 PDE4DIP      intestine,liver
 2 LOC100996724 intestine,liver
 3 SEC22B       intestine,liver
 4 NOTCH2NL     intestine,liver
 5 NBPF10       intestine,liver
 6 LINC01719    intestine,liver
 7 HFE2         liver          
 8 TXNIP        intestine,liver
 9 POLR3GL      intestine,liver
10 ANKRD34A     intestine,liver
# … with 447 more rows
```

```{.r .badCode}
enhancer.tissue
```

```
# A tibble: 137 × 2
# Groups:   source [137]
   source                   tissues        
   <chr>                    <chr>          
 1 chr1:144930398-144933456 intestine,liver
 2 chr1:145394876-145400153 intestine,liver
 3 chr1:145413923-145415673 liver          
 4 chr1:145421224-145422239 liver          
 5 chr1:145426950-145428636 intestine,liver
 6 chr1:145434950-145435719 intestine,liver
 7 chr1:145442141-145445254 intestine,liver
 8 chr1:145451402-145451862 liver          
 9 chr1:145454003-145457954 intestine,liver
10 chr1:145473958-145474912 intestine,liver
# … with 127 more rows
```
…
