…
genes_dist1.more = subset(genes_dist1.more, !(genes_dist1.more$gene.symbol %in% genes))
genes_dist1.more$from = as.character(genes_dist1.more$from)
genes_dist1.more
```

```
# A tibble: 42 × 6
   gene.symbol gene.id            CHiC.sources contact.product… CHiC.count from 
   <chr>       <chr>              <chr>                   <dbl>      <int> <chr>
 1 ACTL6B      ENSG00000077080.5  chr7:100151…                1          2 TFR2 
 2 ADPGK       ENSG00000159322.13 chr15:73089…                3          2 NEO1 
 3 AGFG2       ENSG00000106351.8  chr7:100151…                1          1 TFR2 
 4 ANKRD34A    ENSG00000181039.7  chr1:145508…                2          1 HFE2 
 5 ARL2BP      ENSG00000102931.3  chr16:57256…                2          1 CIAP…
 6 ATF1        ENSG00000123268.4  chr12:51316…                2          1 SLC1…
 7 C1QTNF6     ENSG00000133466.9  chr22:37461…                2          2 TMPR…
 8 C7orf61     ENSG00000185955.4  chr7:100151…                1          1 TFR2 
 9 CCDC135     ENSG00000159625.10 chr16:57491…                3          2 CIAP…
10 CCL22       ENSG00000102962.4  chr16:57428…                2          1 CIAP…
# … with 32 more rows
```
…
